{
	name: "PhD",
	host: "dante.evl.uic.edu",
	port: 443,
	index_port: 80,
	background: {
		color: "#333333",
        watermark: {
			svg: "images/EVL-LAVA.svg",
			color: "rgba(255, 255, 255, 0.5)"
		},
		clip: true
	},
    ui: {
		clock: 12,           // clock setting: 12-hour or 24-hour
		show_version: true,  // shows SAGE2 version in menu bar
		show_url: true,      // shows SAGE2 url in menu bar
		enable_perceptual_scaling: true,
    },
	resolution: {
		width: 4080,
		height: 768
	},
	dimensions: {
		// dimensions of one tile (can be overriden in displays section)
		tile_width:  1.093,  // in meter, pixel area
		tile_height: 0.646,  // in meter, pixel area
		tile_borders: [ 0.002, 0.002, 0.002, 0.002 ], // mullions in meter, left, right, bottom, top
		// prefered or common viewing distance to calculate UI sizes
		viewing_distance: 2.5  // in meter
	},
	layout: {
		rows: 3,
		columns: 1
	},
	displays: [
		{
			row: 0,
			column: 0
		},
		{
			row: 1,
			column: 0
		},
		{
			row: 2,
			column: 0
		}
	],
	alternate_hosts: [
		"localhost",
		"127.0.0.1"
	],
	remote_sites: [
		{
			name: "Cyber-Commons",
			host: "iridium.evl.uic.edu",
			port: 443,
			secure: true
		},
		{
			name: "CAVE2",
			host: "lyra.evl.uic.edu",
			port: 443,
			secure: true
		},
		{
			name: "IceWall",
			host: "thor.evl.uic.edu",
			port: 443,
			secure: true
		},
		{
			name: "Green Room",
			host: "mesaverde.evl.uic.edu",
			port: 443,
			secure: true
		}
	],
	dependencies: {
		ImageMagick: "C:/Program Files/ImageMagick-6.9.0-Q16/",
        FFMpeg: "C:/Dev/ffmpeg-win64-shared/bin/"
	}
}
